# x: 0 y: 0
-12.936243057250977, -46.53374099731445, 12.933069229125977
# x: 1 y: 0
-3.2828683853149414, -49.12035369873047, 13.282064437866211

# x: 0 y: 1
-12.944365501403809, -7.902706146240234, 12.938735961914062
# x: 1 y: 1
-3.2909908294677734, -10.489319801330566, 13.287731170654297

