# x: 0 y: 0
-12.936243057250977, -46.53374099731445, 12.933069229125977
# x: 1 y: 0
-3.282869338989258, -49.12035369873047, 13.282064437866211
# x: 2 y: 0
6.370504379272461, -51.706966400146484, 13.631059646606445
# x: 3 y: 0
16.02387809753418, -54.2935791015625, 13.98005485534668
# x: 4 y: 0
25.6772518157959, -56.880191802978516, 14.329050064086914
# x: 5 y: 0
35.33062744140625, -59.46680450439453, 14.678045272827148
# x: 6 y: 0
44.98400115966797, -62.05341720581055, 15.027040481567383
# x: 7 y: 0
54.63737487792969, -64.64002990722656, 15.376035690307617

# x: 0 y: 1
-12.94437026977539, -7.902713775634766, 12.938724517822266
# x: 1 y: 1
-3.290996551513672, -10.489327430725098, 13.2877197265625
# x: 2 y: 1
6.362377166748047, -13.07594108581543, 13.636714935302734
# x: 3 y: 1
16.015750885009766, -15.662554740905762, 13.985710144042969
# x: 4 y: 1
25.669124603271484, -18.249168395996094, 14.334705352783203
# x: 5 y: 1
35.3224983215332, -20.83578109741211, 14.683700561523438
# x: 6 y: 1
44.97587203979492, -23.422393798828125, 15.032695770263672
# x: 7 y: 1
54.62924575805664, -26.00900650024414, 15.381690979003906

