# x: 0 y: 0
-12.936243057250977, -46.53374099731445, 12.933069229125977
# x: 1 y: 0
-3.2828683853149414, -49.12035369873047, 13.282064437866211

# x: 0 y: 1
-12.944369316101074, -7.902713775634766, 12.938724517822266
# x: 1 y: 1
-3.290994644165039, -10.489327430725098, 13.2877197265625

