Content-Type: text/x-zim-wiki
Wiki-Format: zim 0.4
Creation-Date: 2014-06-18T01:32:19+04:00

====== Статистика ======

~~http://fallout.wikia.com/wiki/Primary_statistics~~
http://fallout.wikia.com/wiki/Derived_statistic

http://ru.fallout.wikia.com/wiki/%D0%9E%D1%81%D0%BD%D0%BE%D0%B2%D0%BD%D0%B0%D1%8F_%D1%85%D0%B0%D1%80%D0%B0%D0%BA%D1%82%D0%B5%D1%80%D0%B8%D1%81%D1%82%D0%B8%D0%BA%D0%B0
http://ru.fallout.wikia.com/wiki/%D0%9F%D1%80%D0%BE%D0%B8%D0%B7%D0%B2%D0%BE%D0%B4%D0%BD%D0%B0%D1%8F_%D1%85%D0%B0%D1%80%D0%B0%D0%BA%D1%82%D0%B5%D1%80%D0%B8%D1%81%D1%82%D0%B8%D0%BA%D0%B0

http://wiki.parpg.net/Programming:Idea_dump#Statistics
http://wiki.parpg.net/Stats_implementation
